『カテゴリカルデータのための連関モデル』 - 2 第2章
…
# 度数，行変数，列変数からなる集計データを作成
polviews <- gl(n = 7, k = 4)
fefam <- gl(n = 4, k = 1, length = 28)
freq_tab_2.3A <- tibble(Freq, polviews, fefam)
freq_tab_2.3A

# A tibble: 28 × 3
    Freq polviews fefam
   <dbl> <fct>    <fct>
 1    39 1        1    
 2    50 1        2    
 3    18 1        3    
 4     4 1        4    
 5   140 2        1    
 6   178 2        2    
 7    85 2        3    
 8    23 2        4    
 9   108 3        1    
10   195 3        2    
# ℹ 18 more rows

なおtab_2.3Aに対して，data.frameを適用しても集計データは作成される．tableの行変数と列変数が指定されていないと，行変数はVar1，列変数はVar2となるので，必要に応じて名前をrenameで修正する ．

data.frame(tab_2.3A) %>% 
  tibble()

# A tibble: 28 × 3
   polviews              fefam              Freq
   <fct>                 <fct>             <dbl>
 1 Strongly liberal      Strongly Disagree    39
 2 Liberal               Strongly Disagree   140
 3 Slightly liberal      Strongly Disagree   108
 4 Moderate              Strongly Disagree   238
 5 Slightly conservative Strongly Disagree    78
 6 Conservative          Strongly Disagree    50
 7 Strongly conservative Strongly Disagree     8
 8 Strongly liberal      Disagree             50
 9 Liberal               Disagree            178
10 Slightly liberal      Disagree            195
# ℹ 18 more rows
…
# defaultのcontrastsの設定（ここでは特に意味はない．constrastをいじった後にデフォルトに戻す）
options(contrasts = c(factor = "contr.treatment", 
                      ordered = "contr.poly"))

行スコアと列スコアを用いるので，まずas.integerを用いて行スコア（Rscore）と列スコア（Cscore）の変数を作成する．

# 行変数と列変数の整数値を作成
freq_tab_2.3A <- freq_tab_2.3A %>% 
  mutate(Rscore = as.integer(polviews),
         Cscore = as.integer(fefam))
freq_tab_2.3A

# A tibble: 28 × 5
    Freq polviews fefam Rscore Cscore
   <dbl> <fct>    <fct>  <int>  <int>
 1    39 1        1          1      1
 2    50 1        2          1      2
 3    18 1        3          1      3
 4     4 1        4          1      4
 5   140 2        1          2      1
 6   178 2        2          2      2
 7    85 2        3          2      3
 8    23 2        4          2      4
 9   108 3        1          3      1
10   195 3        2          3      2
# ℹ 18 more rows
…
