先行研究の再現 – 『カテゴリカルデータの連関モデル』
…
d_duncan <- tibble(Freq = Freq_duncan_1979,
                   O = gl(n = 8, k = 8, length = 8 * 8),
                   D = gl(n = 8, k = 1, length = 8 * 8))

# データの完成
d_duncan

# A tibble: 64 × 3
    Freq O     D    
   <dbl> <fct> <fct>
 1    50 1     1    
 2    19 1     2    
 3    26 1     3    
 4     8 1     4    
 5     7 1     5    
 6    11 1     6    
 7     6 1     7    
 8     2 1     8    
 9    16 2     1    
10    40 2     2    
# ℹ 54 more rows
…
   D
O     1   2   3   4   5   6   7   8
  1   0  19  26   8   7  11   6   2
  2  16   0  34  18  11  20   8   3
  3  12  35   0  66  35  88  23  21
  4  11  20  58   0  40 183  64  32
  5   2   8  12  23   0  46  28  12
  6  12  28 102 162  90   0 230 177
  7   0   6  19  40  21 158   0  71
  8   0   3  14  32  15 126  91   0

# データの完成
d_duncan

# A tibble: 64 × 7
    Freq O     D         U     V Diag      W
   <dbl> <fct> <fct> <dbl> <dbl> <fct> <dbl>
 1    50 1     1         1     1 1         0
 2    19 1     2         1     2 0         1
 3    26 1     3         1     3 0         1
 4     8 1     4         1     4 0         1
 5     7 1     5         1     5 0         1
 6    11 1     6         1     6 0         1
 7     6 1     7         1     7 0         1
 8     2 1     8         1     8 0         1
 9    16 2     1         2     1 0         1
10    40 2     2         2     2 2         0
# ℹ 54 more rows
…
(Dispersion parameter for poisson family taken to be 1)

Std. Error is NA where coefficient has been constrained or is unidentified

Residual deviance: 130.08 on 42 degrees of freedom
AIC: 496.42

Number of iterations: 4

tidy(fit_d_2)

# A tibble: 23 × 5
   term        estimate std.error statistic   p.value
   <chr>          <dbl>     <dbl>     <dbl>     <dbl>
 1 (Intercept)    4.79      0.192     25.0  8.03e-138
 2 O2            -0.691     0.259     -2.66 7.78e-  3
 3 O3            -1.15      0.241     -4.80 1.62e-  6
 4 O4            -1.63      0.241     -6.78 1.17e- 11
 5 O5            -3.24      0.334     -9.71 2.69e- 22
 6 O6            -1.90      0.232     -8.20 2.36e- 16
 7 O7            -4.22      0.305    -13.8  1.67e- 43
 8 O8            -5.14      0.342    -15.0  4.03e- 51
 9 D2             1.24      0.138      8.99 2.49e- 19
10 D3             2.64      0.153     17.3  8.10e- 67
# ℹ 13 more rows
…
(Dispersion parameter for poisson family taken to be 1)

Residual deviance: 446.84 on 41 degrees of freedom
AIC: 815.18

Number of iterations: 5

tidy(fit_d_3b)

# A tibble: 23 × 5
   term        estimate std.error statistic   p.value
   <chr>          <dbl>     <dbl>     <dbl>     <dbl>
 1 (Intercept)    0.363     0.179      2.03 4.22e-  2
 2 O2             0.354     0.148      2.40 1.63e-  2
 3 O3             1.35      0.128     10.6  3.88e- 26
 4 O4             1.77      0.123     14.4  9.01e- 47
 5 O5             0.566     0.143      3.97 7.16e-  5
 6 O6             2.73      0.119     22.8  1.65e-115
 7 O7             1.55      0.126     12.3  1.12e- 34
 8 O8             1.37      0.128     10.8  4.42e- 27
 9 D2             0.820     0.165      4.97 6.83e-  7
10 D3             1.69      0.151     11.2  3.30e- 29
# ℹ 13 more rows
…
(Dispersion parameter for poisson family taken to be 1)

Residual deviance: 58.436 on 40 degrees of freedom
AIC: 428.78

Number of iterations: 4

tidy(fit_d_4b)

# A tibble: 24 × 5
   term        estimate std.error statistic  p.value
   <chr>          <dbl>     <dbl>     <dbl>    <dbl>
 1 (Intercept)   2.11       0.188    11.2   4.22e-29
 2 O2           -0.185      0.150    -1.23  2.18e- 1
 3 O3            0.229      0.137     1.67  9.43e- 2
 4 O4           -0.0604     0.148    -0.409 6.83e- 1
 5 O5           -2.02       0.187   -10.8   2.72e-27
 6 O6           -0.590      0.199    -2.97  3.01e- 3
 7 O7           -2.57       0.245   -10.5   7.72e-26
 8 O8           -3.52       0.285   -12.3   5.33e-35
 9 D2            0.257      0.168     1.53  1.26e- 1
10 D3            0.581      0.159     3.67  2.47e- 4
# ℹ 14 more rows
…
(Dispersion parameter for poisson family taken to be 1)

Std. Error is NA where coefficient has been constrained or is unidentified

Residual deviance: 45.906 on 34 degrees of freedom
AIC: 361.88

Number of iterations: 4

tidy(fit_d_5)

# A tibble: 23 × 5
   term        estimate std.error statistic  p.value
   <chr>          <dbl>     <dbl>     <dbl>    <dbl>
 1 (Intercept)   3.31       0.353     9.37  7.16e-21
 2 O2            0.182      0.407     0.447 6.55e- 1
 3 O3            0.0705     0.358     0.197 8.44e- 1
 4 O4           -0.595      0.348    -1.71  8.69e- 2
 5 O5           -2.17       0.421    -5.16  2.54e- 7
 6 O6           -0.685      0.330    -2.07  3.80e- 2
 7 O7           -2.76       0.388    -7.12  1.11e-12
 8 O8           -3.51       0.440    -7.99  1.31e-15
 9 D2            1.39       0.183     7.56  3.91e-14
10 D3            2.75       0.195    14.1   2.32e-45
# ℹ 13 more rows
…
(Dispersion parameter for poisson family taken to be 1)

Std. Error is NA where coefficient has been constrained or is unidentified

Residual deviance: 45.906 on 34 degrees of freedom
AIC: 428.25

Number of iterations: 4

tidy(fit_d_5b)

# A tibble: 31 × 5
   term        estimate std.error statistic  p.value
   <chr>          <dbl>     <dbl>     <dbl>    <dbl>
 1 (Intercept)   3.31       0.353     9.37  7.16e-21
 2 O2            0.182      0.407     0.447 6.55e- 1
 3 O3            0.0705     0.358     0.197 8.44e- 1
 4 O4           -0.595      0.348    -1.71  8.69e- 2
 5 O5           -2.17       0.421    -5.16  2.54e- 7
 6 O6           -0.685      0.330    -2.07  3.80e- 2
 7 O7           -2.76       0.388    -7.12  1.11e-12
 8 O8           -3.51       0.440    -7.99  1.31e-15
 9 D2            1.39       0.183     7.56  3.91e-14
10 D3            2.75       0.195    14.1   2.32e-45
# ℹ 21 more rows
…
                         127, 101, 24, 30, 12,
                         86, 207, 64, 61, 13,
                         43, 73, 122, 60, 13,
                         35, 51, 62, 66, 11,
                         109, 206, 184, 253, 325)
d_yamaguchi <- tibble(O = gl(5, k = 5, length = 3 * 5 * 5),
                      D = gl(5, k = 1, length = 3 * 5 * 5),
                      C = gl(3, k = 5 * 5, length = 3 * 5 * 5),
                      Freq = Freq_yamaguchi_1987)
d_yamaguchi

# A tibble: 75 × 4
   O     D     C      Freq
   <fct> <fct> <fct> <dbl>
 1 1     1     1      1275
 2 1     2     1       364
 3 1     3     1       274
 4 1     4     1       272
 5 1     5     1        17
 6 2     1     1      1055
 7 2     2     1       597
 8 2     3     1       394
 9 2     4     1       443
10 2     5     1        31
# ℹ 65 more rows
…
    U:V:C3 
-0.0418251 

d_yamaguchi <- d_yamaguchi |> 
  mutate(SYM = c(rep(c(0, 1, 2, 3, 4,
                       1, 0, 5, 6, 7, 
                       2, 5, 0, 8, 9,
                       3, 6, 8, 0, 10,
                       4, 7, 9, 10, 0), 3)) |>  factor())

d_yamaguchi |> dplyr::select(O, D, C, SYM) |> unique()

# A tibble: 75 × 4
   O     D     C     SYM  
   <fct> <fct> <fct> <fct>
 1 1     1     1     0    
 2 1     2     1     1    
 3 1     3     1     2    
 4 1     4     1     3    
 5 1     5     1     4    
 6 2     1     1     1    
 7 2     2     1     0    
 8 2     3     1     5    
 9 2     4     1     6    
10 2     5     1     7    
# ℹ 65 more rows
…
# R+C3: Uniform difference between G.B. and U.S.

Xie (1992)

Xie (1992) の結果を再現する．

# Data
d_xie <- d_yamaguchi
# 確認
d_xie

# A tibble: 75 × 11
   O     D     C      Freq Diag      U     V    C1    C2    C3 SYM  
   <fct> <fct> <fct> <dbl> <fct> <dbl> <dbl> <dbl> <dbl> <dbl> <fct>
 1 1     1     1      1275 1         1     1     1     0     0 0    
 2 1     2     1       364 0         1     2     1     0     0 1    
 3 1     3     1       274 0         1     3     1     0     0 2    
 4 1     4     1       272 0         1     4     1     0     0 3    
 5 1     5     1        17 0         1     5     1     0     0 4    
 6 2     1     1      1055 0         2     1     1     0     0 1    
 7 2     2     1       597 2         2     2     1     0     0 0    
 8 2     3     1       394 0         2     3     1     0     0 5    
 9 2     4     1       443 0         2     4     1     0     0 6    
10 2     5     1        31 0         2     5     1     0     0 7    
# ℹ 65 more rows
…
