クロス表 – 『カテゴリカルデータの連関モデル』
…
入江・菅澤・橋本．2022．『標準 ベイズ統計学』（朝倉書店）のp.27でも用いられているデータ．

Freq_logan_1983 <- c(109, 36, 27, 24,  1,
                      43,  8, 16, 15,  0,
                      70, 27, 79, 55,  1,
                      58, 27, 54, 94,  2,
                      15,  7, 26, 29, 15
                      )
d_logan <- tibble(Freq = Freq_logan_1983,
                  O = gl(n = 5, k = 5, length = 5 * 5),
                  D = gl(n = 5, k = 1, length = 5 * 5))
d_logan

# A tibble: 25 × 3
    Freq O     D    
   <dbl> <fct> <fct>
 1   109 1     1    
 2    36 1     2    
 3    27 1     3    
 4    24 1     4    
 5     1 1     5    
 6    43 2     1    
 7     8 2     2    
 8    16 2     3    
 9    15 2     4    
10     0 2     5    
# ℹ 15 more rows
…
d_erikson <- data.frame(erikson) |> tibble()
d_erikson

# A tibble: 243 × 4
   origin destination country  Freq
   <fct>  <fct>       <fct>   <dbl>
 1 I      I           EW        311
 2 II     I           EW        161
 3 III    I           EW        128
 4 IVa    I           EW         88
 5 IVb    I           EW         36
 6 IVc    I           EW         43
 7 V/VI   I           EW        356
 8 VIIa   I           EW        150
 9 VIIb   I           EW         12
10 I      II          EW        130
# ℹ 233 more rows
…
