3 第3章 – 『カテゴリカルデータの連関モデル』
…
Initialising
Running start-up iterations..
Running main iterations...
Done

tidy(M8)

# A tibble: 35 × 5
   term        estimate std.error statistic   p.value
   <chr>          <dbl>     <dbl>     <dbl>     <dbl>
 1 (Intercept)    0.495   NA          NA    NA       
 2 polviews2      1.05     0.184       5.70  1.20e- 8
 3 polviews3      1.01    NA          NA    NA       
 4 polviews4      2.33    NA          NA    NA       
 5 polviews5      1.32    NA          NA    NA       
 6 polviews6      1.25    NA          NA    NA       
 7 polviews7     -0.125   NA          NA    NA       
 8 fefam2         0.993    0.0956     10.4   2.62e-25
 9 fefam3         0.451    0.104       4.33  1.52e- 5
10 fefam4        -0.840    0.149      -5.64  1.72e- 8
# ℹ 25 more rows
…
以上をtibbleでまとめ，データを作成する．

freq_tab_3.1 <- tibble(Freq, L, R, C) |> arrange(L, R, C)
freq_tab_3.1

# A tibble: 64 × 4
    Freq L     R     C    
   <dbl> <fct> <fct> <fct>
 1    76 1     1     1    
 2    14 1     1     2    
 3    15 1     1     3    
 4     4 1     1     4    
 5    32 1     2     1    
 6    17 1     2     2    
 7     7 1     2     3    
 8     3 1     2     4    
 9    64 1     3     1    
10    23 1     3     2    
# ℹ 54 more rows

行，列，層について整数スコアを作成する．

freq_tab_3.1 <- freq_tab_3.1 |> 
  mutate(Rscore = as.numeric(R),
         Cscore = as.numeric(C),
         Lscore = as.numeric(L))
freq_tab_3.1

# A tibble: 64 × 7
    Freq L     R     C     Rscore Cscore Lscore
   <dbl> <fct> <fct> <fct>  <dbl>  <dbl>  <dbl>
 1    76 1     1     1          1      1      1
 2    14 1     1     2          1      2      1
 3    15 1     1     3          1      3      1
 4     4 1     1     4          1      4      1
 5    32 1     2     1          2      1      1
 6    17 1     2     2          2      2      1
 7     7 1     2     3          2      3      1
 8     3 1     2     4          2      4      1
 9    64 1     3     1          3      1      1
10    23 1     3     2          3      2      1
# ℹ 54 more rows
…
