4 第4章 – 『カテゴリカルデータの連関モデル』
…
Educ <- gl(4, 10, 4 * 5 * 2 * 2)
Occ <- gl(5, 1, 4 * 5 * 2 * 2)
Sex <- gl(2, 5, 4 * 5 * 2 * 2)
Year <- gl(2, 40, 4 * 5 * 2 * 2)
L <- Year:Sex
levels(L) <- factor(1:4)

Rscore <- as.numeric(Educ)
Cscore <- as.numeric(Occ)

freq_tab_3.1 <- tibble(Freq, Educ, Occ, Sex, Year, L, Rscore, Cscore) 
freq_tab_3.1

# A tibble: 80 × 8
    Freq Educ  Occ   Sex   Year  L     Rscore Cscore
   <dbl> <fct> <fct> <fct> <fct> <fct>  <dbl>  <dbl>
 1   201 1     1     1     1     1          1      1
 2    29 1     2     1     1     1          1      2
 3     8 1     3     1     1     1          1      3
 4    13 1     4     1     1     1          1      4
 5     5 1     5     1     1     1          1      5
 6   152 1     1     2     1     2          1      1
 7    29 1     2     2     1     2          1      2
 8     2 1     3     2     1     2          1      3
 9     8 1     4     2     1     2          1      4
10     0 1     5     2     1     2          1      5
# ℹ 70 more rows
…
