『カテゴリカルデータのための連関モデル』 - 補足のノート
…
# tibble でもよい
d <- tibble(Freq, Row, Col)
d

# A tibble: 24 × 3
    Freq Row   Col  
   <dbl> <fct> <fct>
 1    64 1     1    
 2    94 1     2    
 3    58 1     3    
 4    46 1     4    
 5    57 2     1    
 6    94 2     2    
 7    54 2     3    
 8    40 2     4    
 9    57 3     1    
10   105 3     2    
# ℹ 14 more rows

以上をまとめると次のようになる．本書のプログラム例ではglを使うことが多いのでここで使用方法を覚えておこう．

Freq <- c( 64, 94, 58, 46, 57, 94, 54, 40, 57, 105, 65, 60, 72, 141, 77, 94, 36,  97, 54, 78, 21, 71, 54, 71)
NI <- 4
NJ <- 6
Row <- gl(n = NI, k = NJ, length = NI * NJ)
Col <- gl(n = NJ, k = 1, length = NI * NJ)
d <- tibble(Freq, Row, Col)
d

# A tibble: 24 × 3
    Freq Row   Col  
   <dbl> <fct> <fct>
 1    64 1     1    
 2    94 1     2    
 3    58 1     3    
 4    46 1     4    
 5    57 1     5    
 6    94 1     6    
 7    54 2     1    
 8    40 2     2    
 9    57 2     3    
10   105 2     4    
# ℹ 14 more rows
…
tab_2.3A <-
  matrix(Freq,
         nrow = 7,
         ncol = 4,
         byrow = TRUE) %>% as.table()

polviews <- gl(n = 7, k = 4)
fefam <- gl(n = 4, k = 1, length = 28)
freq_tab_2.3A <- tibble(Freq, polviews, fefam)
freq_tab_2.3A

# A tibble: 28 × 3
    Freq polviews fefam
   <dbl> <fct>    <fct>
 1    39 1        1    
 2    50 1        2    
 3    18 1        3    
 4     4 1        4    
 5   140 2        1    
 6   178 2        2    
 7    85 2        3    
 8    23 2        4    
 9   108 3        1    
10   195 3        2    
# ℹ 18 more rows
…
