補足のノート – 『カテゴリカルデータの連関モデル』
…
# tibble でもよい
d <- tibble(Freq, Row, Col)
d

# A tibble: 24 × 3
    Freq Row   Col  
   <dbl> <fct> <fct>
 1    64 1     1    
 2    94 1     2    
 3    58 1     3    
 4    46 1     4    
 5    57 2     1    
 6    94 2     2    
 7    54 2     3    
 8    40 2     4    
 9    57 3     1    
10   105 3     2    
# ℹ 14 more rows

以上をまとめると次のようになる．本書のプログラム例ではglを使うことが多いのでここで使用方法を覚えておこう．

Freq <- c( 64, 94, 58, 46, 57, 94, 54, 40, 57, 105, 65, 60, 72, 141, 77, 94, 36,  97, 54, 78, 21, 71, 54, 71)
NI <- 4
NJ <- 6
Row <- gl(n = NI, k = NJ, length = NI * NJ)
Col <- gl(n = NJ, k = 1, length = NI * NJ)
d <- tibble(Freq, Row, Col)
d

# A tibble: 24 × 3
    Freq Row   Col  
   <dbl> <fct> <fct>
 1    64 1     1    
 2    94 1     2    
 3    58 1     3    
 4    46 1     4    
 5    57 1     5    
 6    94 1     6    
 7    54 2     1    
 8    40 2     2    
 9    57 2     3    
10   105 2     4    
# ℹ 14 more rows
…
tab_2.3A <-
  matrix(Freq,
         nrow = 7,
         ncol = 4,
         byrow = TRUE) |> as.table()

polviews <- gl(n = 7, k = 4)
fefam <- gl(n = 4, k = 1, length = 28)
freq_tab_2.3A <- tibble(Freq, polviews, fefam)
freq_tab_2.3A

# A tibble: 28 × 3
    Freq polviews fefam
   <dbl> <fct>    <fct>
 1    39 1        1    
 2    50 1        2    
 3    18 1        3    
 4     4 1        4    
 5   140 2        1    
 6   178 2        2    
 7    85 2        3    
 8    23 2        4    
 9   108 3        1    
10   195 3        2    
# ℹ 18 more rows
…
Std. Error is NA where coefficient has been constrained or is unidentified

Residual deviance: 8.0718 on 10 degrees of freedom
AIC: 215.43

Number of iterations: 30

tidy(RC)

# A tibble: 22 × 5
   term        estimate std.error statistic p.value
   <chr>          <dbl>     <dbl>     <dbl>   <dbl>
 1 (Intercept)    2.97         NA        NA      NA
 2 polviews2      1.38         NA        NA      NA
 3 polviews3      1.40         NA        NA      NA
 4 polviews4      2.54         NA        NA      NA
 5 polviews5      1.64         NA        NA      NA
 6 polviews6      1.55         NA        NA      NA
 7 polviews7     -0.215        NA        NA      NA
 8 fefam2         0.865        NA        NA      NA
 9 fefam3         0.372        NA        NA      NA
10 fefam4        -0.819        NA        NA      NA
# ℹ 12 more rows
…
Std. Error is NA where coefficient has been constrained or is unidentified

Residual deviance: 1.3691 on 4 degrees of freedom
AIC: 220.72

Number of iterations: 84

tidy(RC2)

# A tibble: 34 × 5
   term        estimate std.error statistic p.value
   <chr>          <dbl>     <dbl>     <dbl>   <dbl>
 1 (Intercept)    2.99         NA        NA      NA
 2 polviews2      1.44         NA        NA      NA
 3 polviews3      1.40         NA        NA      NA
 4 polviews4      2.52         NA        NA      NA
 5 polviews5      1.56         NA        NA      NA
 6 polviews6      1.53         NA        NA      NA
 7 polviews7     -0.134        NA        NA      NA
 8 fefam2         0.815        NA        NA      NA
 9 fefam3         0.369        NA        NA      NA
10 fefam4        -0.826        NA        NA      NA
# ℹ 24 more rows
…
Std. Error is NA where coefficient has been constrained or is unidentified

Residual deviance: -3.1086e-15 on 0 degrees of freedom
AIC: 227.35

Number of iterations: 11

tidy(RC3)

# A tibble: 46 × 5
   term        estimate std.error statistic p.value
   <chr>          <dbl>     <dbl>     <dbl>   <dbl>
 1 (Intercept)    2.99         NA        NA      NA
 2 polviews2      1.46         NA        NA      NA
 3 polviews3      1.38         NA        NA      NA
 4 polviews4      2.52         NA        NA      NA
 5 polviews5      1.58         NA        NA      NA
 6 polviews6      1.52         NA        NA      NA
 7 polviews7     -0.108        NA        NA      NA
 8 fefam2         0.813        NA        NA      NA
 9 fefam3         0.353        NA        NA      NA
10 fefam4        -0.805        NA        NA      NA
# ℹ 36 more rows
…
Warning: パッケージ 'polycor' はバージョン 4.5.2 の R の下で造られました

library(vcdExtra)

次のパッケージを付け加えます: 'vcdExtra'

以下のオブジェクトは 'package:dplyr' からマスクされています:

    summarise

d_ind <- expand.dft(d, dreq = "Freq")
d_ind

# A tibble: 135 × 6
     Row   Col     U     V    mu     nu
   <int> <int> <int> <int> <dbl>  <dbl>
 1     1     1     1     1  1.34  0.851
 2     1     1     1     1  1.34  0.851
 3     1     1     1     1  1.34  0.851
 4     1     1     1     1  1.34  0.851
 5     1     1     1     1  1.34  0.851
 6     1     2     1     2  1.34  0.444
 7     1     2     1     2  1.34  0.444
 8     1     2     1     2  1.34  0.444
 9     1     3     1     3  1.34 -1.62 
10     1     3     1     3  1.34 -1.62 
# ℹ 125 more rows
…
